{
  "project_info": {
    "project_number": "771315452345",
    "project_id": "demoapp-89b0a",
    "storage_bucket": "demoapp-89b0a.appspot.com"
  },
  "client": [
    {
      "client_info": {
        "mobilesdk_app_id": "1:771315452345:android:78b94c128577e6fcc54e68",
        "android_client_info": {
          "package_name": "com.example.demo_app"
        }
      },
      "oauth_client": [
        {
          "client_id": "771315452345-a77hakgjssat38epul8s6978fppvrdf9.apps.googleusercontent.com",
          "client_type": 1,
          "android_info": {
            "package_name": "com.example.demo_app",
            "certificate_hash": "da463bb69ae1c18ac4d0279c6e63b06f39a1ad91"
          }
        },
        {
          "client_id": "771315452345-0vscsnbjbe4qtbfv42gmc3h56bd3p6ok.apps.googleusercontent.com",
          "client_type": 3
        }
      ],
      "api_key": [
        {
          "current_key": "AIzaSyAy7byZ0UcuXzYgjnd9tNDItUuh6NV492o"
        }
      ],
      "services": {
        "appinvite_service": {
          "other_platform_oauth_client": [
            {
              "client_id": "771315452345-0vscsnbjbe4qtbfv42gmc3h56bd3p6ok.apps.googleusercontent.com",
              "client_type": 3
            }
          ]
        }
      }
    }
  ],
  "configuration_version": "1"
}